%YAML 1.1
%TAG !u! tag:unity3d.com,2011:
--- !u!114 &11400000
MonoBehaviour:
  m_ObjectHideFlags: 0
  m_CorrespondingSourceObject: {fileID: 0}
  m_PrefabInstance: {fileID: 0}
  m_PrefabAsset: {fileID: 0}
  m_GameObject: {fileID: 0}
  m_Enabled: 1
  m_EditorHideFlags: 0
  m_Script: {fileID: 11500000, guid: 8e6063ee9a92f1a49a2edc3c6b9b542c, type: 3}
  m_Name: Desert
  m_EditorClassIdentifier: 
  blockID: 1
  blockName: 
  top: {fileID: 1375137440657463968, guid: 3b5641d547bce17408435a9fe183d565, type: 3}
  Botton: {fileID: 2697455760201151399, guid: e0e5128a915aa6843bad5c7b367e7f9c, type: 3}
  isSolid: 0
  scale: 0.4
  canFly: 1
  type: 0
